name="A.E.I.O.U. 1886 [Official]"
replace_path="events"
replace_path="common/ai_areas"
replace_path="common/ai_focuses"
replace_path="common/national_focus"
replace_path="common/ideologies"
replace_path="common/on_actions"
replace_path="common/scripted_effects"
replace_path="common/scripted_localisation"
replace_path="history/states"
replace_path="common/ideas"
replace_path="common/scripted_triggers"
replace_path="gfx/loadingscreens"
replace_path="gfx/flags"
replace_path="common/decisions"
replace_path="common/decisions/categories"
replace_path="common/bookmarks"
replace_path="common/ai_strategy"
tags={
	"Alternative History"
	"National Focuses"
	"Events"
	"Map"
}
picture="thumbnail.png"
supported_version="1.14.*"
path="mod/aeiou-1886-main/"
remote_file_id="2435736174"