﻿name="A.E.I.O.U. 1886 [Official]"
tags={
	"Alternative History"
	"National Focuses"
	"Events"
	"Map"
}
version="1.14.*"
replace_path = "events"
# replace_path = "common/abilities"
replace_path="common/ai_areas"
replace_path = "common/ai_focuses"
# replace_path = "common/ai_equipment"
# replace_path = "common/ai_strategy_plans"
replace_path = "common/national_focus"
replace_path = "common/ideologies"
replace_path = "common/on_actions"
replace_path = "common/scripted_effects"
replace_path = "common/scripted_localisation"
replace_path = "history/states"
# replace_path = "history/units"
#replace_path = "history/countries"
replace_path = "common/autonomous_states"
# replace_path = "common/countries"
replace_path = "common/ideas"replace_path = "common/scripted_triggers"
# replace_path = "common/technologies"
# replace_path = "common/bookmarks"
# replace_path = "common/units"
replace_path = "common/units/names_divisions"
# replace_path = "common/unit_leader"
# replace_path = "common/wargoals"
# replace_path = "map/strategicregions"
# replace_path = "map/supplyareas"
replace_path = "gfx/loadingscreens"
replace_path = "gfx/flags"
# replace_path = "map/supplyareas"
replace_path = "common/decisions"
replace_path = "common/decisions/categories"
replace_path = "common/bookmarks"
#replace_path = "common/country_tags"
#replace_path = "common/countries"
replace_path = "common/ai_strategy"
picture="thumbnail.png"