
state={
	id=109
	name="STATE_109" # Croatia
	manpower = 1200000
	
	state_category = large_town

	resources={
		horses = 2
		fabric = 3
		wood = 3
	}

	local_supplies=0.000

	history={
		owner = AUS
		buildings = {
			infrastructure = 3
			industrial_complex = 2
		}
		victory_points = {
			11581 3 
		}
		add_core_of = AUS
	}

	provinces={
		624 3592 3596 3627 6647 9595 9611 11577 11580 11581 11594
	}
}
