state=
{
	id=145
	name="STATE_145"
	manpower = 11400
	
	state_category = small_island
	
	local_supplies=0.000

	history={
		owner = SWE
		buildings = {
			infrastructure = 2
			9228 = {
				naval_base = 1
			}
		}
		add_core_of = SWE
	}
	
	provinces=	{
		9228
	}
}
