
state={
	id=15
	name="STATE_15"
	manpower = 2532100
	resources={
        iron = 2
		horses = 7
	}
	
	state_category = city

	local_supplies=0.000

	history={
		owner = FRA
		victory_points = {
			9434 10
		}
		victory_points = {
			6449 3
		}
		victory_points = {
			11563 5
		}
		victory_points = {
			485 3
		}
		buildings = {
			infrastructure = 7
			industrial_complex = 2
			
			arms_factory = 1
			6449 = {
				naval_base = 3
				coastal_bunker = 1
			}
			9434 = {
				naval_base = 5
				coastal_bunker = 1
			}
			485= {
				naval_base = 1
			}
		}
		add_core_of = FRA
	}

	provinces={
		485 539 553 3534 3549 3579 6449 6569 6599 9434 9550 9578 11521 11535 11563 
	}
}
