
state={
	id=159
	name="STATE_159"
	manpower = 2611052
	state_category = large_city
	
	resources = {
	    wood = 6
		horses=3
		gunpowder =2
		fabric=4
	}

	local_supplies=0.000

	history={
		owner = MIL
		victory_points = {
			3780 15 
		}
		buildings = {
			infrastructure = 4
			arms_factory = 2
			industrial_complex = 2
		}
		add_core_of = MIL
	}

	provinces={
		607 773 969 3780 6661 9584 11568 11587  
	}
}
