state=
{
	id=177
	name="STATE_177"
	manpower = 312621
	
	state_category = rural
	
	resources = {
	    gunpowder=1
	}
	
	local_supplies=0.000

	history={
		victory_points = {
			9793 1
		}
		owner = SPR
		buildings = {
			infrastructure = 3
			9793 = {
				naval_base = 2
			}
			7114 = {
				naval_base = 1
			}
		}
		add_core_of = SPR
	}
	provinces=
	{
7114 9793 9845 	}
}
