
state={
	id=190
	name="STATE_190"
	manpower = 379500
	
	state_category = town
	
	resources = {
	    wood = 2
		gunpowder = 2
	}
	
	local_supplies=0.000

	history={
		victory_points = {
			9262 3
		}
		owner = COU
		buildings = {
			infrastructure = 3
			9262 = {
				naval_base = 1
			}
			dockyard = 1
		}
		add_core_of = COU
	}

	provinces={
		265 3194 3296 3319 3525 6222 6322 6342 9262 11246 11358 3255
	}
}
