
state={
	id=217
	name="STATE_217"
	manpower = 1135070
	
	state_category = city

	local_supplies=0.000

	history={
		owner = RUS
		victory_points = {
			3529 30.0
		}
		buildings = {
			infrastructure = 7
			arms_factory = 1
			industrial_complex = 1
			
		}
		add_core_of = RUS
		1939.1.1 = {
			buildings = {
				arms_factory = 2
			}
		}
	}

	provinces={
		498 520 3503 3517 3529 3555 6479 6503 6527 6541 6575 9442 9459 9474 9504 9530 11395 11447 11474 11484 
	}
}
