
state={
	id=222
	name="STATE_222"
	manpower = 1218607
	
	state_category = rural
	
	resources={
		steel=40 # was: 76
		wood=8 # was: 12
	}

	local_supplies=0.000

	history={
		owner = RUS
		victory_points = {
			9355 10
		}
		buildings = {
			infrastructure = 5
			
		}
		add_core_of = RUS
	}

	provinces={
		302 328 384 6355 9328 9355 9384 9411 11214 11283 11310 11337 11368 
	}
}
