state={
	id=229
	name="STATE_229"
	resources={
		horses=70 # was: 126.000
	}

	local_supplies=0.000

	history={
		owner = DAG
		buildings = {
			infrastructure = 4
			industrial_complex = 1
			fuel_silo = 1
			
		}
		add_core_of = DAG

	}

	provinces={
		4458 4477 4545 6763 7495 11645 
	}
	manpower=2400875
	buildings_max_level_factor=1.000
	state_category=large_town
}
