
state={
	id=232
	name="STATE_232"
	manpower = 1451006
	
	state_category = rural
	
	resources={
		horses=19 # was: 26
	}

	local_supplies=0.000

	history={
		owner = RUS
		buildings = {
			infrastructure = 4
		}
		victory_points = {
			3672 5 
		}
		add_core_of = RUS
	}

	provinces={
		683 700 712 728 3672 3682 6689 6730 6748 11632 
	}
}
