
state={
	id=235
	name="STATE_235"
	manpower = 1316516
	
	state_category = rural
	resources={
		wood=14 # was: 20
	}

	local_supplies=0.000

	history={
		owner = RUS
		buildings = {
			infrastructure = 4
			
		}
		add_core_of = RUS
		victory_points = {
			11696 3
		}
		victory_points = {
			6750 1
		}
	}

	provinces={
		714 731 748 3748 6702 6718 6733 6750 6753 9688 9705 9707 9722 9726 9742 11633 11661 11678 11690 11693 11694 11696 11727 
	}
}
