
state={
	id=252
	name="STATE_252"
	manpower = 3378176
	
	state_category = city

	local_supplies=0.000

	history={
		owner = RUS
		victory_points = {
			11375 10
		}
		buildings = {
			infrastructure = 5
			arms_factory = 2
			
		}
		add_core_of = RUS
		1939.1.1 = {
			buildings = {
				arms_factory = 3
			}
		}
	}

	provinces={
		12 256 270 297 368 3224 3245 3261 3285 3303 3349 3352 3383 6149 6231 6295 6299 6327 6370 6374 6392 6410 9291 9298 9325 9358 9360 9368 9389 9407 11275 11277 11324 11340 11344 11375 11394 
	}
}
