
state={
	id=257
	name="STATE_257" # Tambov
	manpower = 1779583
	
	state_category = rural
	
	resources={
		wood=7 # was: 10
	}

	local_supplies=0.000

	history={
		owner = RUS
		buildings = {
			infrastructure = 4
		}
		add_core_of = RUS
		victory_points = {
			11351 1
		}
	}

	provinces={
		232 275 313 340 367 396 471 3332 3389 9245 9312 9367 9422 11227 11296 11323 11351 11381 11436 
	}
}
