state={
	id=268
	name="STATE_268"
	manpower = 42603


	state_category = enclave

	local_supplies=0.000

	history={
		owner = AWS
		add_core_of = AWS
		victory_points = {
			8124 1
		}
		buildings = {
			infrastructure = 3
			
			8124 = {
				naval_base = 2
			}
		}

	}
	provinces={
		4985 8124 13303
 	}
}
