
state={
	id=27
	name="STATE_27" # Bourgogne
	manpower = 1345702
	
	state_category = large_town
	
	resources={
	}

	local_supplies=0.000

	history={
		owner = FRA
		victory_points = {
			3652 5 
		}
		buildings = {
			infrastructure = 3
		}
		add_core_of = FRA
	}

	provinces={
		648 667 680 817 3506 3652 3669 3681 9609 9625 9644 11628 
	}
}
