state=
{
	id=298
	name="STATE_298"
	manpower = 745000
	
	state_category = rural
	resources={
		fabric=6 # was: 7
	}	
	

	local_supplies=0.000

	history={
		owner = AFR
		buildings = {
			infrastructure = 2
			arms_factory = 1
			industrial_complex = 1
			7959 = {
				naval_base = 2
			}
		}
		victory_points = {
			7959 3
		}
		add_core_of = AFR
	}
	provinces={
		7959 8006
	}
}
