
state={
	id=304
	name="STATE_304"
	manpower = 170068
	resources={
		horses=1
		wood=2
	}
	
	state_category = rural
	
	local_supplies=0.000

	history={
		owner = COL
		buildings = {
			infrastructure = 3
			industrial_complex = 1
			7630 = {
				naval_base = 4
			}
			4611 = {
				naval_base = 1
			}
		}
		add_core_of = COL
		victory_points = {
			7630 5 
		}
		victory_points = {
			4611 1
		}

	}

	provinces={
		1633 4611 4624 7630 10482 
	}
}
