
state={
	id=32
	name="STATE_32" 
	manpower = 504671
	
	state_category = rural
	
	resources={
	    fabric=8
		wood = 2
	}

	local_supplies=0.000

	history={
		owner = FRA
		buildings = {
			infrastructure = 4
		}
		victory_points = {
			3768 1 
		}
		add_core_of = FRA
	}

	provinces={
		762 780 3589 3768 6784 11713 
	}
}
