
state={
	id=346
	name="STATE_346"
	manpower = 430305
	
	state_category = rural

	local_supplies=0.000

	history={
		owner = OTT
		buildings = {
			infrastructure = 3
			
		}
		
		victory_points = {
			940 1 
		}
		add_core_of = OTT
	}

	provinces={
		940 3788 6807 6894 9755 9763 9811 11792 11860 13122 
	}
}
