
state={
	id=366
	name="STATE_366"
	manpower = 150916
	
	state_category = rural

	resources={
		wood=2
	}

	local_supplies=0.000

	history={
		owner = NEN
		buildings = {
			infrastructure = 3
			industrial_complex = 1
			1843 = {
				naval_base = 3
			}
			10352 = {
				naval_base = 1
			}
		}
		add_core_of = NEN
		victory_points = {
			1843 5 
		}

	}

	provinces={
		866 1556 1572 1843 1913 9834 10352 10380 10407 10489 12353 12381 12439  
	}
	
}
