
state={
	id=388
	name="STATE_388"
	manpower = 13705
	state_category = rural
	resources={
		wood=4
	}

	local_supplies=0.000

	history={
		owner = BLK
		buildings = {
			infrastructure = 2
		}
		add_core_of = BLK
		victory_points = {
			4860 1 
		}

	}

	provinces={
		1736 1854 1857 4838 4860 6742 7779 10593 11712 12572 12676 10624
	}
}
