
state={
	id=401
	name="STATE_401"
	manpower = 927795
	
	state_category = rural
	
	resources={
		steel=24 # was: 40
		gunpowder=16 # was: 34
	}

	local_supplies=0.000

	history={
		owner = RUS
		buildings = {
			infrastructure = 4
		}
		add_core_of = RUS
		victory_points = {
			6502 1
		}
	}

	provinces={
		410 452 499 3490 3551 6339 6430 6473 6502 6574 6601 9337 9432 9447 9473 9577 11321 11421 11458 11460 11523 
	}
}
