
state={
	id=416
	name="STATE_416"
	manpower = 1059739
	state_category = rural

	local_supplies=0.000

	history={
		owner = PER
		buildings = {
			infrastructure = 3
			industrial_complex = 2
		}
		victory_points = {
			5029 1 
		}
		victory_points = {
			4893 1 
		}
		add_core_of = PER
	}

	provinces={
		1521 1888 1957 2000 5029 5073 7573 10351 10806 4893 12871
	}
}
