
state={
	id=46
	name="STATE_46" # Muntenia
	manpower = 1700000
	resources={
		horses=22 # was: 70
	}

	state_category = city

	local_supplies=0.000

	history={
		owner = ROM
		victory_points = { 9617 15 }
		victory_points = { 3663 5 }
		victory_points = { 657 3 }
		buildings = {
			infrastructure = 4
			arms_factory = 2
			industrial_complex = 1
			657 = {
				naval_base = 8
			}
			687 = {
				naval_base = 1
			}
			dockyard = 1
		}
		add_core_of = ROM
	}

	provinces={
		657 660 674 687 818 3076 3636 3639 3663 6658 6677 6695 9617 9635 9651 11603 11619 11636 
	}
}
