
state={
	id=465
	name="STATE_465"
	manpower = 131373
	
	state_category = rural

	resources={
		wood=6
	}

	local_supplies=0.000

	history={
		owner = FCN
		buildings = {
			infrastructure = 3
			industrial_complex = 1
			4285 = {
				naval_base = 2
			}
		}
		add_core_of = FCN
	}

	provinces={
		634 1424 4285 4342 4362 4432 7379 12289 
	}
}
