state={
	id=492
	name="STATE_492"
	resources={
		wood=1
		horses=2
	}
	
	state_category = rural

	local_supplies=0.000

	history={
		owner = PRU
		buildings = {
			infrastructure = 3
			industrial_complex = 1
		}
		add_core_of = PRU
		victory_points = {
			2210 1 
		}

	}

	provinces={
		2182 2210 2225 5202 12953 13086 
	}
	manpower=279013
	buildings_max_level_factor=1.000
}
