
state={
	id=499
	name="STATE_499"
	manpower = 801499
	
	state_category = town

	resources = {
		wood=2
		iron=2
		fabric=1
	}

	local_supplies=0.000

	history={
		owner = POR
		buildings = {
			infrastructure = 3
			industrial_complex = 1
			10946 = {
				naval_base = 1
			}
		}
		add_core_of = POR
		victory_points = {
			10946 1 
		}

	}

	provinces={
		4617 5194 8143 8177 8184 8197 8242 10392 10926 10946 5174 8129 5218 12422 10419 11002
	}
}
