
state={
	id=506
	name="STATE_506" # Antofagasta
	manpower = 1408136
	
	state_category = rural

	resources = {
		horses=2
	}

	local_supplies=0.000

	history={
		owner = CHL
		buildings = {
			infrastructure = 2
			industrial_complex = 1
			12994 = {
				naval_base = 1
			}
			5228 = {
				naval_base = 2
			}
		}
		add_core_of = CHL
		victory_points = {
			12994 1
		}

	}

	provinces={
		5146 5171 5192 5228 11000 12914 12994 
	}
}
