
state={
	id=510
	name="STATE_510"
	manpower = 398098
	resources={
		wood=2
		horses=3
		gunpowder=3
	}
	
	state_category = town

	local_supplies=0.000

	history={
		owner = ARG
		buildings = {
			infrastructure = 3
			industrial_complex = 1
			arms_factory = 1
		}
		victory_points = {
			7500 1 
		}
		add_core_of = ARG
	}

	provinces={
		1449 2172 5163 7500 8187 8208 8238 10515 10943 10975 10985 12453 12964 13000 
	}
}
