
state={
	id=513
	name="STATE_513" # Tlmecen
	manpower = 811486
	
	state_category = wasteland

	local_supplies=0.000

	history={
		owner = FRA
		victory_points = {
			12034 1 
		}
		buildings = {
			infrastructure = 2
		}
	}

	provinces={
		1128 1141 3991 4018 4150 7008 7033 7040 7149 9960 10045 10059 12018 12020 12034 13074 13077 
	}
}
