state=
{
	id=524
	name="STATE_524"
	manpower = 4592537
	
	state_category = large_town
	local_supplies=0.000

	history={
		owner = SPE
		add_core_of = SPE
		add_core_of = CHI
		buildings = {
			infrastructure = 5
			arms_factory = 1
			
		}
		victory_points = {
			7186 5 
		}

	}
	provinces={
		 4096 7186 7214 9955 11959  
		}
}
