state={
	id=545
	
	state_category = pastoral
	
	name="STATE_545"

	local_supplies=0.000

	history={
		owner = AFR
		add_core_of = AFR
		buildings = {
			infrastructure = 3

		}
		victory_points = {
			10929 1 
		}
	}

	provinces={
		1874 2151 2216 4851 7842 10929
	}
	manpower=1171336
	buildings_max_level_factor=1.000
}
