
state={
	id=561
	name="STATE_561" # Amur
	manpower = 454281
	
	state_category = rural

	local_supplies=0.000

	history={
		owner = RUS
		buildings = {
			infrastructure = 2
		}
		add_core_of = RUS
	}

	provinces={
		1730 1739 1845 4731 4847 7691 7754 7785 7851 10678 12543 12591 12657 12660 
	}
}
