
state={
	id=570
	name="STATE_570" # Novosibirsk
	manpower = 1765369

	state_category = town

	local_supplies=0.000

	history={
		owner = RUS
		victory_points = {
			7274 3 
		}
		buildings = {
			infrastructure = 3
			industrial_complex = 1
		}
		add_core_of = RUS
	}

	provinces={
		1733 1790 1860 4366 4734 4806 4840 4866 7274 7687 7722 7825 10555 10652 12606 12679 
	}
}
