state={
	id=61
	name="STATE_61"
	manpower = 538015

    resources = {
	    wood = 1 
	    gunpowder = 1
		horses = 3 
	}

	state_category = town

	local_supplies=0.000

	history={
		owner = MCK
		victory_points = {
			321 5
		}
		victory_points = {
			11305 3
		}
		buildings = {
			infrastructure = 3
			arms_factory = 1
			industrial_complex = 1 
			321 = {
				naval_base = 2
			}
		}
		add_core_of = MCK
	}

	provinces={
		268 293 321 9294 11276 11305 3258
	}
}
