state=
{
	id=626
	name="STATE_626"
	manpower = 58320
	
	state_category = rural
	
	resources={
		wood=1
	}

	local_supplies=0.000

	history={
		owner = SPE
		buildings = {
			infrastructure = 2
			4429 = {
				naval_base = 1
			}
		}
		add_core_of = SPE
	}
	provinces={
		4429 7419 10145 
	}
}
