state=
{
	id=628
	name="STATE_628"
	manpower = 901506
	
	resources={
		wood=1
	}

	state_category = rural
	
	local_supplies=0.000

	history={
		owner = SPE
		buildings = {
			infrastructure = 3
			industrial_complex=1
			12118 = {
				naval_base = 1
			}
		}
		
		victory_points = {
			12118 1 
		}
		add_core_of = SPE
	}

	provinces={
		1261 1368 7385 7423 10186 10302 12112 12118 12153 
	}
}
