
state={
	id=641
	name="STATE_641"
	manpower=105786
	state_category = small_island

	local_supplies=0.000

	history={
		owner = FRA
		buildings = {
			infrastructure = 3
			
			12148 = {
				naval_base = 1
			}
		}
	}

	provinces={
		10188 12148 
	}
}
