state=
{
	id=645
	name="STATE_645"
	manpower=1018
	state_category = small_island
	local_supplies=0.000

	history={
		owner = JAP
		add_core_of = JAP
		buildings = {
			infrastructure = 3
			
			13025 = {
				naval_base = 1

			}
		}
		victory_points = {
			13025 5
		 }

	}
	provinces={
		13025
	}
}
