
state={
	id=658
	name="STATE_658"
	manpower = 170200
	resources={
		horses=5 # was: 6
	}
	
	state_category = pastoral


	local_supplies=0.000

	history={
		add_core_of = PIR
		owner = PIR
		victory_points = {
			7960 1 
		}
		buildings = {
			infrastructure = 2
			7960 = {
				naval_base = 3
			}
		}

	}

	provinces={
		2048 7960 8108 10904 
	}
}
