
state={
	id=660
	name="STATE_660"
	manpower = 1136921
	
	state_category = pastoral
	resources={
		fabric=3 # was: 4
	}
	local_supplies=0.000

	history={
		owner = AFR
		add_core_of = AFR
		victory_points = {
			12830 1
		}
		buildings = {
			infrastructure = 2
		}

	}

	provinces={
		1974 3165 5084 8078 11108 12719 12830 11012 5054 2080 5036
	}
}
