state={
	id=661
	name="STATE_661"
	manpower = 17617
	
	state_category = wasteland
	
	local_supplies=0.000

	history={
		owner = LBA
		buildings = {
			infrastructure = 1
		}
		add_core_of = LBA
	}
	
	provinces={
		1174 4051 4117 4176 7154 7194 10037 10067 11940 12009
	}
}
