
state={
	id=668
	name="STATE_668"
	manpower = 295627
	
	state_category = pastoral

	resources={
		wood=1
	}

	local_supplies=0.000

	history={
		owner = SPE
		add_core_of = SPE
		buildings = {
			infrastructure = 3
			1574 = {
				naval_base = 1
			}
			1351 = {
				naval_base = 1
			}
			7413 = {
				naval_base = 1
			}
		}
	}

	provinces={
		1351 1419 1437 1574 7369 7413 7557 10141 10342 10409 
	}
}
