
state={
	id=67
	name="STATE_67"
	manpower = 411120

	resources={
		iron = 3
		fabric = 2
	}
	
	state_category = city

	local_supplies=0.000

	history={
		victory_points = {
			11467 5
		}
		victory_points = {
			9511 3
		}
		owner = AUS
		buildings = {
			infrastructure = 6
		}
		add_core_of = AUS
	}

	provinces={
		479 6512 9457 9511 11467 
	}
}
