state={
	id=713
	name="STATE_713"
	manpower=96
	state_category = tiny_island

	local_supplies=0.000

	history={
		owner = FRA
		buildings = {
			infrastructure = 1
			2165 = {
				naval_base = 1
			}
		}
	}

	provinces={
		2165 
	}
}
