state = {
	id=78
	name="STATE_78"
	manpower = 1060000
	
	state_category = large_town
	resources={
	horses=10
	}
	
	local_supplies=0.000

	history={
		owner = MOL
		victory_points = {
			3707 1
		}
		buildings = {
		industrial_complex = 1
		arms_factory = 1
			infrastructure = 2
		}
		add_core_of = MOL
	}
	provinces = {
        414 565 3407 3577 3707 3724 6600 9683 11686 11705 	
	}
}
