
state={
	id=780
	name="STATE_780" # Guinea
	manpower = 195041
	
	state_category = pastoral
	local_supplies=0.000

	history={
		owner = AFR
		add_core_of = AFR
		victory_points = {
			1909 1 
		}
		buildings = {
			infrastructure = 3
			1909 = {
				naval_base = 1
			}
		}
	}

	provinces={
		1909 4957 5039 8008 12802 12858
	}
}
