state={
	id=787
	name="STATE_787" # Northern Kashmir
	manpower = 1415800
	
	state_category = rural

	local_supplies=0.000

	history={
		victory_points = {
			1910 1
		}
		owner = SIH
		buildings = {
			infrastructure = 2
		}
		add_core_of = SIH

	}

	provinces={
		1910 2041 10821 
	}
}