
state={
	id=804
	name="STATE_804"
	manpower = 148000
	
	state_category = town
	
	resources={
		wood=14 # was: 20
	}

	local_supplies=0.000

	history={
		owner = SER
		buildings = {
			infrastructure = 2
			arms_factory = 1
		}
		add_core_of = SER
	}

	provinces={
		606 11741 982
	}
}