
state={
	id=820
	name="STATE_820"
	manpower = 248173
	state_category = rural 
	
	resources = {
	    horses = 1 
	}

	local_supplies=0.000

	history={
		owner = ANB
		
      buildings = {
			infrastructure = 3
		}

		add_core_of = ANB
	}

	provinces={
		11404 
	}
}