
state={
	id=823
	name="STATE_823" 
	manpower = 144363
	
	resources={
		wood=1
	}

	state_category = pastoral

	local_supplies=0.000

	history={
		owner = FOS
		buildings = {
			infrastructure = 2
			12129 = {
				naval_base = 1
			}
		}
		add_core_of = FOS
		victory_points = {
			12129 1
		}
		victory_points = {
			4279 2
		}

	}

	provinces={
		4279 1304 12129 
	}
}
