
state={
	id=853
	name="STATE_853"
	manpower = 31094
	state_category = rural

	local_supplies=0.000

	history={
		owner = DOR
		victory_points = {
			495 5 
		}
		buildings = {
			infrastructure = 4
		}
		add_core_of = DOR
	}
	
	
	provinces={
		495
	}
}
