state={
	id=866
	name="STATE_866"

	local_supplies=0.000

	history={
		owner = AWS
		add_core_of = AWS
	}

	provinces={
		8043 13230
	}
	manpower = 280707
	buildings_max_level_factor = 1.000
	state_category = rural
}
