state= {
	id=912
	name="STATE_912"
	manpower = 1956
	
	state_category = pastoral

	local_supplies=0.000

	history={
		owner = INV
		add_core_of = INV
		buildings = {
			infrastructure = 0
		}
	}
	provinces={
	   3606 7891 10703 7696
	}
}