state={
	id=92
	name="STATE_92"

	local_supplies=0.000

	history={
		victory_points = {
			11399 1 
		}
		owner = PLC
		buildings = {
			infrastructure = 3
			industrial_complex = 1
			

		}
		add_core_of = PLC

	}

	provinces={
		3521 3559 6484 6580 9452 9521 9544 11399 11466 
	}
	manpower=2464600
	buildings_max_level_factor=1.000
	state_category=town
}
