
state = {
	id = 945
	name = "STATE_945"
	manpower = 500230
	
	state_category = town
	
	resources = {
		steel = 2
	}

	local_supplies=0.000

	history={ 

		owner = URG
		add_core_of = URG

		buildings = {
			infrastructure = 2
			industrial_complex = 2
			dockyard = 1
		}

	}

	provinces = {
		1641 1654 10347 12481
	}

	local_supplies = 0.0 
}
