state = {
	id = 958
	name = "STATE_958"
	manpower = 602403
	
	state_category = rural

	local_supplies=0.000

	history={

		owner = ARG
		add_core_of = ARG

		buildings = {
			infrastructure = 2
		}
		
		victory_points = {
			12942 2 
		}

	}

	provinces = {
		2158 5152 5184 5219 7550 11021 11022 12942 12970
	}

	local_supplies = 0.0 
}
