
state={
	id=961
	name="STATE_961"
	manpower = 258452

	state_category = pastoral 

	local_supplies=0.000

	history={
		owner = IRE
		add_core_of = IRE 
	    victory_points = {
			337 1   
		}
		buildings = {
			infrastructure = 2 
		}
	}

	provinces={
		337
	}
}